^C:\USERS\TRI HASTUTI\DOCUMENTS\VISUAL STUDIO 2012\PROJECTS\REGULAFALSI\REGULAFALSI\STDAFX.CPP
/c /ZI /nologo /W3 /WX- /sdl /Od /Oy- /D WIN32 /D _DEBUG /D _CONSOLE /D _UNICODE /D UNICODE /Gm /EHsc /RTC1 /MDd /GS /fp:precise /Zc:wchar_t /Zc:forScope /Yc"stdafx.h" /Fp"DEBUG\REGULAFALSI.PCH" /Fo"DEBUG\\" /Fd"DEBUG\VC110.PDB" /Gd /TP /analyze- C:\USERS\TRI HASTUTI\DOCUMENTS\VISUAL STUDIO 2012\PROJECTS\REGULAFALSI\REGULAFALSI\STDAFX.CPP
^C:\USERS\TRI HASTUTI\DOCUMENTS\VISUAL STUDIO 2012\PROJECTS\REGULAFALSI\REGULAFALSI\REGULAFALSI.CPP
/c /ZI /nologo /W3 /WX- /sdl /Od /Oy- /D WIN32 /D _DEBUG /D _CONSOLE /D _UNICODE /D UNICODE /Gm /EHsc /RTC1 /MDd /GS /fp:precise /Zc:wchar_t /Zc:forScope /Yu"stdafx.h" /Fp"DEBUG\REGULAFALSI.PCH" /Fo"DEBUG\\" /Fd"DEBUG\VC110.PDB" /Gd /TP /analyze- C:\USERS\TRI HASTUTI\DOCUMENTS\VISUAL STUDIO 2012\PROJECTS\REGULAFALSI\REGULAFALSI\REGULAFALSI.CPP
