^C:\USERS\TRI HASTUTI\DOCUMENTS\VISUAL STUDIO 2012\PROJECTS\HILBERT\HILBERT\STDAFX.CPP
C:\USERS\TRI HASTUTI\DOCUMENTS\VISUAL STUDIO 2012\PROJECTS\HILBERT\HILBERT\DEBUG\HILBERT.PCH
C:\USERS\TRI HASTUTI\DOCUMENTS\VISUAL STUDIO 2012\PROJECTS\HILBERT\HILBERT\DEBUG\STDAFX.OBJ
C:\USERS\TRI HASTUTI\DOCUMENTS\VISUAL STUDIO 2012\PROJECTS\HILBERT\HILBERT\DEBUG\VC110.PDB
^C:\USERS\TRI HASTUTI\DOCUMENTS\VISUAL STUDIO 2012\PROJECTS\HILBERT\HILBERT\HILBERT.CPP
C:\USERS\TRI HASTUTI\DOCUMENTS\VISUAL STUDIO 2012\PROJECTS\HILBERT\HILBERT\DEBUG\VC110.PDB
C:\USERS\TRI HASTUTI\DOCUMENTS\VISUAL STUDIO 2012\PROJECTS\HILBERT\HILBERT\DEBUG\HILBERT.OBJ
